%YAML 1.1
%TAG !u! tag:unity3d.com,2011:
--- !u!74 &7400000
AnimationClip:
  m_ObjectHideFlags: 0
  m_PrefabParentObject: {fileID: 0}
  m_PrefabInternal: {fileID: 0}
  m_Name: Tapa
  serializedVersion: 6
  m_Legacy: 0
  m_Compressed: 0
  m_UseHighQualityCurve: 1
  m_RotationCurves: []
  m_CompressedRotationCurves: []
  m_EulerCurves: []
  m_PositionCurves: []
  m_ScaleCurves: []
  m_FloatCurves: []
  m_PPtrCurves:
  - curve:
    - time: 0
      value: {fileID: 21300000, guid: 02d926b4204df2e419496dfc634b26f6, type: 3}
    - time: 0.016666668
      value: {fileID: 21300000, guid: df23185e27f45fe4db9a60bd43a7481c, type: 3}
    - time: 0.033333335
      value: {fileID: 21300000, guid: f5bd2a5451da97941a97da4946d2765a, type: 3}
    - time: 0.05
      value: {fileID: 21300000, guid: 5ae38204221bd6f4cb1a8de4757b909a, type: 3}
    - time: 0.06666667
      value: {fileID: 21300000, guid: 09e717f216993824ab718242988fd6d7, type: 3}
    - time: 0.083333336
      value: {fileID: 21300000, guid: fbae719b0aa739b4fbaa71880792e3c7, type: 3}
    - time: 0.1
      value: {fileID: 21300000, guid: 51ac311ad8bbd6c4b82987c218f81a9f, type: 3}
    - time: 0.11666667
      value: {fileID: 21300000, guid: 9f0e5cad1703571438d3af3bcee6cd1a, type: 3}
    - time: 0.13333334
      value: {fileID: 21300000, guid: c31f80f9f398a484ca305e8b000c67d8, type: 3}
    - time: 0.15
      value: {fileID: 21300000, guid: 9b4af00f72a1b2944a012f624811dbcf, type: 3}
    attribute: m_Sprite
    path: 
    classID: 114
    script: {fileID: -765806418, guid: f70555f144d8491a825f0804e09c671c, type: 3}
  m_SampleRate: 60
  m_WrapMode: 0
  m_Bounds:
    m_Center: {x: 0, y: 0, z: 0}
    m_Extent: {x: 0, y: 0, z: 0}
  m_ClipBindingConstant:
    genericBindings:
    - serializedVersion: 2
      path: 0
      attribute: 2015549526
      script: {fileID: -765806418, guid: f70555f144d8491a825f0804e09c671c, type: 3}
      typeID: 114
      customType: 0
      isPPtrCurve: 1
    pptrCurveMapping:
    - {fileID: 21300000, guid: 02d926b4204df2e419496dfc634b26f6, type: 3}
    - {fileID: 21300000, guid: df23185e27f45fe4db9a60bd43a7481c, type: 3}
    - {fileID: 21300000, guid: f5bd2a5451da97941a97da4946d2765a, type: 3}
    - {fileID: 21300000, guid: 5ae38204221bd6f4cb1a8de4757b909a, type: 3}
    - {fileID: 21300000, guid: 09e717f216993824ab718242988fd6d7, type: 3}
    - {fileID: 21300000, guid: fbae719b0aa739b4fbaa71880792e3c7, type: 3}
    - {fileID: 21300000, guid: 51ac311ad8bbd6c4b82987c218f81a9f, type: 3}
    - {fileID: 21300000, guid: 9f0e5cad1703571438d3af3bcee6cd1a, type: 3}
    - {fileID: 21300000, guid: c31f80f9f398a484ca305e8b000c67d8, type: 3}
    - {fileID: 21300000, guid: 9b4af00f72a1b2944a012f624811dbcf, type: 3}
  m_AnimationClipSettings:
    serializedVersion: 2
    m_AdditiveReferencePoseClip: {fileID: 0}
    m_AdditiveReferencePoseTime: 0
    m_StartTime: 0
    m_StopTime: 0.16666667
    m_OrientationOffsetY: 0
    m_Level: 0
    m_CycleOffset: 0
    m_HasAdditiveReferencePose: 0
    m_LoopTime: 0
    m_LoopBlend: 0
    m_LoopBlendOrientation: 0
    m_LoopBlendPositionY: 0
    m_LoopBlendPositionXZ: 0
    m_KeepOriginalOrientation: 0
    m_KeepOriginalPositionY: 1
    m_KeepOriginalPositionXZ: 0
    m_HeightFromFeet: 0
    m_Mirror: 0
  m_EditorCurves: []
  m_EulerEditorCurves: []
  m_HasGenericRootTransform: 0
  m_HasMotionFloatCurves: 0
  m_GenerateMotionCurves: 0
  m_Events: []
