%YAML 1.1
%TAG !u! tag:unity3d.com,2011:
--- !u!687078895 &4343727234628468602
SpriteAtlas:
  m_ObjectHideFlags: 0
  m_PrefabParentObject: {fileID: 0}
  m_PrefabInternal: {fileID: 0}
  m_Name: NuevosSprites2019
  m_EditorData:
    textureSettings:
      serializedVersion: 2
      anisoLevel: 1
      compressionQuality: 50
      maxTextureSize: 8192
      textureCompression: 0
      filterMode: 1
      generateMipMaps: 0
      readable: 0
      crunchedCompression: 0
      sRGB: 1
    platformSettings: []
    packingParameters:
      serializedVersion: 2
      padding: 4
      blockOffset: 1
      allowAlphaSplitting: 0
      enableRotation: 1
      enableTightPacking: 1
    variantMultiplier: 1
    packables:
    - {fileID: 102900000, guid: 9bbd607ff61c86f46b2f9948e70cc7a6, type: 3}
    totalSpriteSurfaceArea: 125816732
    bindAsDefault: 1
  m_MasterAtlas: {fileID: 0}
  m_PackedSprites:
  - {fileID: 21300000, guid: 34244460b6661e444aa607c95c48eee0, type: 3}
  - {fileID: 21300000, guid: 604b6a70ba6e46a4e8853641d802243f, type: 3}
  - {fileID: 21300000, guid: e36d6e70961d07a4ca9f664580e38c69, type: 3}
  - {fileID: 21300000, guid: bde4c1907fa45e249937845bba05e1b2, type: 3}
  - {fileID: 21300000, guid: 3ac4f3a081e27a141909ab71f1ec0625, type: 3}
  - {fileID: 21300000, guid: 950196d006d1c214eb8e590609421664, type: 3}
  - {fileID: 21300000, guid: 1f53b221ac17e4544aacc4e8644c8036, type: 3}
  - {fileID: 21300000, guid: 57d0d8515b35fa040854be8d782c42e1, type: 3}
  - {fileID: 21300000, guid: 253cdb71d4aca5940bde3f06cad2c30a, type: 3}
  - {fileID: 21300000, guid: a39212815bf6aad438f12e7aae847268, type: 3}
  - {fileID: 21300000, guid: b72b84a18b9869d48a24b704d4a1c407, type: 3}
  - {fileID: 21300000, guid: 0744e6c1b7eaa4b428a535fd8957d90b, type: 3}
  - {fileID: 21300000, guid: cf96e702ecb1f3142a2bf67c7dfd4aa9, type: 3}
  - {fileID: 21300000, guid: d7f0d1536681001468703c410ab16921, type: 3}
  - {fileID: 21300000, guid: ad81c4c425a5d0543b0241a7c596ac52, type: 3}
  - {fileID: 21300000, guid: 46ae15d4867d52144b8223f14fbc4869, type: 3}
  - {fileID: 21300000, guid: 3154c1e45262d85469b2e957fb6cfcb2, type: 3}
  - {fileID: 21300000, guid: 77a02e4518de18849a9945d95057e20e, type: 3}
  - {fileID: 21300000, guid: 053a8455ad27f7d49bd598d34b5f2405, type: 3}
  - {fileID: 21300000, guid: 98613b653ecab904c992afafe218fe86, type: 3}
  - {fileID: 21300000, guid: b8eb1a853be8aca4ca90c3ff120ffef1, type: 3}
  - {fileID: 21300000, guid: 7079e266b91ba5744a572a3ff123a870, type: 3}
  - {fileID: 21300000, guid: 123b4ad75ec596b4dba219bdad38ff6f, type: 3}
  - {fileID: 21300000, guid: f33ab9285d85b7642bb8fa713ee0cc82, type: 3}
  - {fileID: 21300000, guid: 4138005854ec46e4898d91d741527113, type: 3}
  - {fileID: 21300000, guid: ba254788b872d0d4baec63ca0ac28422, type: 3}
  - {fileID: 21300000, guid: e67ee19887f4a6d49aa85cdae07533f6, type: 3}
  - {fileID: 21300000, guid: 56b57ca82cd209247ad44a985e2662cb, type: 3}
  - {fileID: 21300000, guid: a53083c8be400d34ab2555cdeae7118b, type: 3}
  - {fileID: 21300000, guid: db56b2e8847d28c418d4ccbe35cfabd8, type: 3}
  - {fileID: 21300000, guid: 669653e80eaf79443a51527a7d683992, type: 3}
  - {fileID: 21300000, guid: b1193779ad64b1c4c94af020e7d31eac, type: 3}
  - {fileID: 21300000, guid: f7c636b91781b104c84ac2710d5b3fad, type: 3}
  - {fileID: 21300000, guid: 675c48f9ff0ef37408334131ce1aa7a7, type: 3}
  - {fileID: 21300000, guid: 13da5b5a73ba88540b91a6064808da32, type: 3}
  - {fileID: 21300000, guid: 2ad868aa416d6bf459a45584bfb80001, type: 3}
  - {fileID: 21300000, guid: 2343ccaa16588414ab31eaf0ad21e210, type: 3}
  - {fileID: 21300000, guid: 1f37e60bc6ade5b4cb4cb8b0dc0276b7, type: 3}
  - {fileID: 21300000, guid: 9807857bf7bc97745a9062fe2d610b4b, type: 3}
  - {fileID: 21300000, guid: 63f1498b4061d114fac2b27602d54e8d, type: 3}
  - {fileID: 21300000, guid: 020c485cbf0e5f64eb7d6d0b3a1e8c6a, type: 3}
  - {fileID: 21300000, guid: b467333d89c5b8149be86e29ad4e0f01, type: 3}
  - {fileID: 21300000, guid: bb61833d326b3bf49aa21ee71c76fe12, type: 3}
  - {fileID: 21300000, guid: e1b5256dbf750344aa5de17189774321, type: 3}
  - {fileID: 21300000, guid: 5e515acd14a5a0e429feabe63eb05d57, type: 3}
  - {fileID: 21300000, guid: 68799fcd2735df849a569da1d4feb288, type: 3}
  - {fileID: 21300000, guid: 5223050e574c29f47896232c47e5d1c0, type: 3}
  - {fileID: 21300000, guid: 8c98870e453cf904885ed6f58733bf28, type: 3}
  - {fileID: 21300000, guid: 6be56d3ef8ac7f44587007a31d6fc42d, type: 3}
  - {fileID: 21300000, guid: fcee6e4e14702264a87a41dbc695f2b9, type: 3}
  - {fileID: 21300000, guid: a6cc8f6e823748a4585d6c9dc8632798, type: 3}
  - {fileID: 21300000, guid: 20257e0ff7dd3ca4ead1af158d3dc65a, type: 3}
  - {fileID: 21300000, guid: 6c218e3f33b236a49a16df1d7b03f433, type: 3}
  - {fileID: 21300000, guid: 62c2608ff5ede424a93ac6bf80d80a3c, type: 3}
  - {fileID: 21300000, guid: 9f9f0acfd92de604f9af6de0b8929aa1, type: 3}
  - {fileID: 21300000, guid: 00c6246028d69e141b1f76ba477e2f29, type: 3}
  - {fileID: 21300000, guid: 2e1aeaf098f54ee469f98410ab37c0f9, type: 3}
  - {fileID: 21300000, guid: a1da92c1e62998b41b096236fb0ecae6, type: 3}
  - {fileID: 21300000, guid: 951d4e32702365f45b72e0d935a2b50e, type: 3}
  - {fileID: 21300000, guid: 1d48f39213858524ab01897b5329c122, type: 3}
  - {fileID: 21300000, guid: 762f68e2335b03a418346b1103db07e3, type: 3}
  - {fileID: 21300000, guid: 120e9563c55902c42b216e7eebaa5caf, type: 3}
  - {fileID: 21300000, guid: e342e5a36b1f5e64a847f2d82ea9d47f, type: 3}
  - {fileID: 21300000, guid: 6d0b51f3edfe21441a241388b81820f0, type: 3}
  - {fileID: 21300000, guid: 35a429c43c814874891b0f3b97362595, type: 3}
  - {fileID: 21300000, guid: 882ea645e7a36ff4ebd65ea66ecbdee6, type: 3}
  - {fileID: 21300000, guid: 86c3ba4585c495049b04cae0be26809e, type: 3}
  - {fileID: 21300000, guid: a7f67b6542297b54685807074cdece22, type: 3}
  - {fileID: 21300000, guid: ba311106a07049a48a244aa7328b75ff, type: 3}
  - {fileID: 21300000, guid: a6d02ea656dc5e148a4f9bccc3798811, type: 3}
  - {fileID: 21300000, guid: 465bafb73e8ddf446b22ed6d0a060f3c, type: 3}
  - {fileID: 21300000, guid: a0bb3519f1338e34b9770d45975b5edb, type: 3}
  - {fileID: 21300000, guid: 40073e7995e973a4a9d4a66539625e79, type: 3}
  - {fileID: 21300000, guid: 22bac44a2a4d4ab4abd2dfe1958bfc0b, type: 3}
  - {fileID: 21300000, guid: 2270594bdc58e6b47840cebc4055cd34, type: 3}
  - {fileID: 21300000, guid: 69b9d57bcd0d0404ca93ac9fba483585, type: 3}
  - {fileID: 21300000, guid: dc7e9e7b221ab524da989beb1d07b81a, type: 3}
  - {fileID: 21300000, guid: 4ec4384cb2b7eb14c94c4941ef69defa, type: 3}
  - {fileID: 21300000, guid: aae22d7c8536c424eb426c122fdc982e, type: 3}
  - {fileID: 21300000, guid: 0ba37b8ca10d1f446b3468cefab8a465, type: 3}
  - {fileID: 21300000, guid: c0d2402eed0fe4d46b1d386f070244b9, type: 3}
  - {fileID: 21300000, guid: 2407206e9da8c1446ac201a4abab1af8, type: 3}
  - {fileID: 21300000, guid: 5107d3fe0f11e194cbe0ca58a8843b2c, type: 3}
  - {fileID: 21300000, guid: 971d6174fc19a4d46b9791b1ddf5f72c, type: 3}
  - {fileID: 21300000, guid: 8d6a67a5dd1c3794f84c9bbd57b43828, type: 3}
  - {fileID: 21300000, guid: 658fa36eaa95b1843ae64f9d4e1348dd, type: 3}
  - {fileID: 21300000, guid: 533f9e59a7da1224592496ce2ed7597b, type: 3}
  - {fileID: 21300000, guid: 4d7e20d24c6cdc94db6c9fde282990ef, type: 3}
  - {fileID: 21300000, guid: e0e0f29c5984a5e47a39e912dfb32841, type: 3}
  - {fileID: 21300000, guid: f097adff08cb8f042acfa132a7b284ac, type: 3}
  - {fileID: 21300000, guid: ec585485a4953ea4ca98e5e4eda7fedb, type: 3}
  - {fileID: 21300000, guid: 151a7dcb2406daf44ba323c309aca6c9, type: 3}
  - {fileID: 21300000, guid: 30ca0ee348c07df46882a4519caefc04, type: 3}
  - {fileID: 21300000, guid: 1169391514f03da4780189908c121708, type: 3}
  - {fileID: 21300000, guid: 3ce285c12eee07946b17b2d9133caedd, type: 3}
  - {fileID: 21300000, guid: 5b2227a8bc1dad140abf2c110ffb9a9c, type: 3}
  - {fileID: 21300000, guid: 2b8f2462edafeef468896d160099ba01, type: 3}
  - {fileID: 21300000, guid: 4249634877b7c904a9e697d8dc790f1a, type: 3}
  - {fileID: 21300000, guid: cb53d607196a26c488efb1d866b8266e, type: 3}
  - {fileID: 21300000, guid: 85a7d434d159afa4ea0ba632216faa42, type: 3}
  - {fileID: 21300000, guid: d6a9ec34fd8b18f4ca3b4f7a312ee0cd, type: 3}
  - {fileID: 21300000, guid: c3a87de1fefc54a43b81def0e7dc4f14, type: 3}
  - {fileID: 21300000, guid: 3a8f7e4fbf8577843a92e3c4ce74b661, type: 3}
  - {fileID: 21300000, guid: f442832d494119c4bb3a810b768abf12, type: 3}
  - {fileID: 21300000, guid: 8e58216cfd6d79a4fa09807b16f8b38d, type: 3}
  - {fileID: 21300000, guid: 9fb2199b97f9804458b36143839091a4, type: 3}
  - {fileID: 21300000, guid: aff7c1838b5d07848b09d6d4ea0423a3, type: 3}
  - {fileID: 21300000, guid: 0a730963bcb51fa458565a1c2a539e66, type: 3}
  - {fileID: 21300000, guid: 427a33a21abc63542bc10da40a3f9047, type: 3}
  - {fileID: 21300000, guid: 680c27f596ec53f47976a99b3b23c5c7, type: 3}
  - {fileID: 21300000, guid: a524b048d5957044d9b6a7e1db06e528, type: 3}
  - {fileID: 21300000, guid: aca2be555627bc74e81dabc1bd55529e, type: 3}
  - {fileID: 21300000, guid: 95b2383f9023bb7459e46bca73095433, type: 3}
  m_PackedSpriteNamesToIndex:
  - Estribo_00020
  - Estribo_00046
  - Estribo_00036
  - Estribo_00010
  - Estribo_00054
  - Estribo_00006
  - Estribo_00007
  - Estribo_00051
  - Estribo_00035
  - Estribo_00003
  - Estribo_00041
  - Estribo_00040
  - Estribo_00016
  - Estribo_00019
  - Estribo_00023
  - Estribo_00008
  - Estribo_00028
  - Estribo_00022
  - Estribo_00012
  - Estribo_00042
  - Estribo_00026
  - Estribo_00005
  - Estribo_00014
  - Estribo_00053
  - Estribo_00017
  - Estribo_00015
  - Estribo_00021
  - Estribo_00032
  - Estribo_00004
  - Estribo_00024
  - Estribo_00049
  - Estribo_00031
  - Estribo_00001
  - Estribo_00038
  - Estribo_00000
  - Estribo_00018
  - Estribo_00025
  - Estribo_00043
  - Estribo_00033
  - Estribo_00030
  - Estribo_00013
  - Estribo_00052
  - Estribo_00050
  - Estribo_00002
  - Estribo_00011
  - Estribo_00048
  - Estribo_00044
  - Estribo_00037
  - Estribo_00034
  - Estribo_00039
  - Estribo_00027
  - Estribo_00047
  - Estribo_00045
  - Estribo_00029
  - Estribo_00009
  - rompeCarga_00004
  - rompeCarga_00008
  - rompeCarga_00006
  - rompeCarga_00022
  - rompeCarga_00024
  - rompeCarga_00012
  - rompeCarga_00011
  - rompeCarga_00001
  - rompeCarga_00007
  - rompeCarga_00016
  - rompeCarga_00025
  - rompeCarga_00017
  - rompeCarga_00027
  - rompeCarga_00000
  - rompeCarga_00020
  - rompeCarga_00014
  - rompeCarga_00003
  - rompeCarga_00021
  - rompeCarga_00013
  - rompeCarga_00019
  - rompeCarga_00026
  - rompeCarga_00009
  - rompeCarga_00005
  - rompeCarga_00010
  - rompeCarga_00023
  - rompeCarga_00018
  - rompeCarga_00002
  - rompeCarga_00015
  - posteD
  - pertiga
  - posteI
  - estriboDesarmado
  - estriboArmado
  - estriboSolo
  - eslingaPoste
  - pertiga
  - escalera
  - cables
  - escalera
  - cable
  - tercerPretaConeccion
  - cablesVida
  - CablesVida
  - estriboDesconectado1
  - tercer-pretal_e
  - cablesVida
  - estriboDesconectado2
  - botasNuevas_e
  - botasNuevas
  - tercerPretaMovimiento
  - estriboConectado1
  - estriboConectado2
  - lineaVida
  - Manila_de_servicio
  - estriboDesconectado3
  - tercer-pretal(tie-off)
  - eslinga de posicionamiento
  - estriboConectado3
  m_Tag: NuevosSprites2019
  m_IsVariant: 0
